[
  {
    "timestamp": "27/03/2023 9:14:27",
    "name": "Maxi Finit",
    "phone": "081338953762",
    "is_whatsapp": "Tidak",
    "plat": "DH 8671 AF",
    "tank_expired": "01 - 28",
    "volume": "5000 liter",
    "photo": "https://drive.google.com/open?id=12FxlZokFO4xhY0IiHD7okHZy7E_FHmgF",
    "water_filling_location": "Depo Air Liliba",
    "delivery_area": "Kec. Alak, Kec. Kelapa Lima, Kec. Kota Raja, Kec. Kota Lama, Kec. Maulafa, Kec. Oebobo",
    "ownership_status": "Milik Orang Lain (Hanya Driver)"
  },
  {
    "timestamp": "27/03/2023 9:18:06",
    "name": "Agus Tanki",
    "phone": "082147764418",
    "is_whatsapp": "Ya",
    "plat": "DH 8044 AM",
    "tank_expired": "10 - 25",
    "volume": "5000 liter",
    "photo": "https://drive.google.com/open?id=1c7ZDY0YbdLK_B-EJPGKKZMNratcmMZ53",
    "water_filling_location": "Depo Air Liliba",
    "delivery_area": "Kec. Kelapa Lima, Kec. Kota Raja, Kec. Kota Lama, Kec. Maulafa, Kec. Oebobo",
    "ownership_status": "Milik Orang Lain (Hanya Driver)"
  },
  {
    "timestamp": "27/03/2023 9:21:53",
    "name": "Bapa Goris Tangki",
    "phone": "081237308010",
    "is_whatsapp": "Tidak",
    "plat": "DH 8896 AK",
    "tank_expired": "05 - 25",
    "volume": "5000 liter",
    "photo": "https://drive.google.com/open?id=1SXHrc3emVfdqjSzbXt-gOW9G1bsvkBim",
    "water_filling_location": "Depo Air Liliba",
    "delivery_area": "Kec. Kelapa Lima, Kec. Kota Raja, Kec. Kota Lama, Kec. Maulafa, Kec. Oebobo",
    "ownership_status": "Milik Orang Lain (Hanya Driver)"
  },
  {
    "timestamp": "27/03/2023 9:33:31",
    "name": "Samson Tangki",
    "phone": "081280475571",
    "is_whatsapp": "Ya",
    "plat": "DH",
    "tank_expired": "08 - 28",
    "volume": "5000 liter",
    "photo": "https://drive.google.com/open?id=1rAFoxaZtInXjhlrCJNILyC-5u8rMjY9V",
    "water_filling_location": "Depo Air Oesapa",
    "delivery_area": "Kec. Alak, Kec. Kelapa Lima, Kec. Kota Raja, Kec. Kota Lama, Kec. Maulafa, Kec. Oebobo",
    "ownership_status": "Milik Orang Lain (Hanya Driver)"
  },
  {
    "timestamp": "27/03/2023 9:35:26",
    "name": "Marten Tangki",
    "phone": "082146163497",
    "is_whatsapp": "Ya",
    "plat": "DH 8562 AP",
    "tank_expired": "11 - 27",
    "volume": "5000 liter",
    "photo": "https://drive.google.com/open?id=1YXze6u2v-BUO3cNGeihKXc65YmwRKStZ",
    "water_filling_location": "Depo Air Oesapa, Depo Air Oebobo, Tirta Bahari (Alak)",
    "delivery_area": "Kec. Alak, Kec. Kelapa Lima, Kec. Kota Raja, Kec. Kota Lama, Kec. Maulafa, Kec. Oebobo",
    "ownership_status": "Milik Orang Lain (Hanya Driver)"
  },
  {
    "timestamp": "27/03/2023 9:38:40",
    "name": "Om Mau Shalom Tangki",
    "phone": "082155384305",
    "is_whatsapp": "Tidak",
    "plat": "DH 8245 AH",
    "tank_expired": "12 - 26",
    "volume": "5000 liter",
    "photo": "https://drive.google.com/open?id=1i-KCcO0zu5OoK9Qx8RzDhk55msz6cxNH",
    "water_filling_location": "Depo Air Oesapa, Depo Air Oebobo",
    "delivery_area": "Kec. Alak, Kec. Kelapa Lima, Kec. Kota Raja, Kec. Kota Lama, Kec. Maulafa, Kec. Oebobo",
    "ownership_status": "Milik Sendiri"
  },
  {
    "timestamp": "27/03/2023 9:55:02",
    "name": "Yos Tangki",
    "phone": "082144189032",
    "is_whatsapp": "Ya",
    "plat": "DH",
    "tank_expired": "08 - 28",
    "volume": "5000 liter",
    "photo": "https://drive.google.com/open?id=1UUGtUzZ3wxtMY3Xwmjwf1lubX7NuALmW",
    "water_filling_location": "Depo Air Belakang Ramayana",
    "delivery_area": "Kec. Kelapa Lima, Kec. Kota Raja, Kec. Kota Lama, Kec. Maulafa",
    "ownership_status": "Milik Orang Lain (Hanya Driver)"
  },
  {
    "timestamp": "27/03/2023 9:59:59",
    "name": "Dami Tangki",
    "phone": "081246000537",
    "is_whatsapp": "Ya",
    "plat": "DH 8768 AP",
    "tank_expired": "04 - 27",
    "volume": "6000 liter",
    "photo": "https://drive.google.com/open?id=1XjgxjmehcorvpfZMLlVcuqqiIpVjfPXl",
    "water_filling_location": "Depo Air Liliba, Depo Air Oebobo",
    "delivery_area": "Kec. Alak, Kec. Kelapa Lima, Kec. Kota Raja, Kec. Kota Lama, Kec. Maulafa, Kec. Oebobo",
    "ownership_status": "Milik Orang Lain (Hanya Driver)"
  },
  {
    "timestamp": "27/03/2023 10:01:39",
    "name": "Odi Tangki",
    "phone": "082147639632",
    "is_whatsapp": "Ya",
    "plat": "DH 9655 AH",
    "tank_expired": "07 - 26",
    "volume": "5000 liter",
    "photo": "https://drive.google.com/open?id=1YFuOHOyvMS09TkMw4YAg0lp4gCvWHbfv",
    "water_filling_location": "Depo Air Oebobo",
    "delivery_area": "Kec. Alak, Kec. Kelapa Lima, Kec. Kota Raja, Kec. Kota Lama, Kec. Maulafa, Kec. Oebobo",
    "ownership_status": "Milik Orang Lain (Hanya Driver)"
  },
  {
    "timestamp": "27/03/2023 10:03:06",
    "name": "Boris Tangki",
    "phone": "082145288324",
    "is_whatsapp": "Tidak",
    "plat": "DH 8079 AK",
    "tank_expired": "02 - 25",
    "volume": "5000 liter",
    "photo": "https://drive.google.com/open?id=10gPufzd1tM8KhqSbK1voKLb69IU9Jbjd",
    "water_filling_location": "Depo Air Liliba, Depo Air Oesapa, Depo Air Oebobo, Tirta Bahari (Alak), GIRFAM (Batuplat)",
    "delivery_area": "Kec. Alak, Kec. Kelapa Lima, Kec. Kota Raja, Kec. Kota Lama, Kec. Maulafa",
    "ownership_status": "Milik Orang Lain (Hanya Driver)"
  },
  {
    "timestamp": "30/03/2023 18:14:23",
    "name": "BUYUNG RUSLI LAMASE",
    "phone": "082226229357",
    "is_whatsapp": "Ya",
    "plat": "DH 9128 BD",
    "tank_expired": "02 - 2023",
    "volume": "5000 liter",
    "photo": "https://drive.google.com/open?id=1jrRgeHFGTuZsfoLj7qinDh4kVsr9i1NK",
    "water_filling_location": "Tirta Bahari (Alak), Polsek Alak (Lasbaun)",
    "delivery_area": "Kec. Alak",
    "ownership_status": "Milik Sendiri"
  }
]